{
  "cubes": [
    {
      "name": "SnowplowSessions",
      "title": "Snowplow Sessions",
      "connectedComponent": 1,
      "measures": [
        {
          "name": "SnowplowSessions.count",
          "title": "Snowplow Sessions Count",
          "shortTitle": "Count",
          "cumulativeTotal": false,
          "cumulative": false,
          "type": "number",
          "aggType": "count",
          "drillMembers": [

          ],
          "drillMembersGrouped": {
            "measures": [

            ],
            "dimensions": [

            ]
          },
          "isVisible": true
        },
        {
          "name": "SnowplowSessions.averagePerUser",
          "title": "Snowplow Sessions Average Per User",
          "shortTitle": "Average Per User",
          "cumulativeTotal": false,
          "cumulative": false,
          "type": "number",
          "aggType": "number",
          "drillMembers": [

          ],
          "drillMembersGrouped": {
            "measures": [

            ],
            "dimensions": [

            ]
          },
          "isVisible": true
        },
        {
          "name": "SnowplowSessions.averageDurationMinutes",
          "title": "Snowplow Sessions Average Duration Minutes",
          "shortTitle": "Average Duration Minutes",
          "cumulativeTotal": false,
          "cumulative": false,
          "type": "number",
          "aggType": "avg",
          "drillMembers": [

          ],
          "drillMembersGrouped": {
            "measures": [

            ],
            "dimensions": [

            ]
          },
          "isVisible": true
        },
        {
          "name": "SnowplowSessions.uniqueUsersCount",
          "title": "Snowplow Sessions Unique Users Count",
          "shortTitle": "Unique Users Count",
          "cumulativeTotal": false,
          "cumulative": false,
          "type": "number",
          "aggType": "countDistinct",
          "drillMembers": [

          ],
          "drillMembersGrouped": {
            "measures": [

            ],
            "dimensions": [

            ]
          },
          "isVisible": true
        },
        {
          "name": "SnowplowSessions.repeatPercent",
          "title": "Snowplow Sessions Repeat Percent",
          "description": "Percent of Repeat Sessions",
          "shortTitle": "Repeat Percent",
          "format": "percent",
          "cumulativeTotal": false,
          "cumulative": false,
          "type": "number",
          "aggType": "number",
          "drillMembers": [

          ],
          "drillMembersGrouped": {
            "measures": [

            ],
            "dimensions": [

            ]
          },
          "isVisible": true
        },
        {
          "name": "SnowplowSessions.repeatCount",
          "title": "Snowplow Sessions Repeat Count",
          "description": "Repeat Sessions Count",
          "shortTitle": "Repeat Count",
          "cumulativeTotal": false,
          "cumulative": false,
          "type": "number",
          "aggType": "count",
          "drillMembers": [

          ],
          "drillMembersGrouped": {
            "measures": [

            ],
            "dimensions": [

            ]
          },
          "isVisible": true
        }
      ],
      "dimensions": [
        {
          "name": "SnowplowSessions.isFirst",
          "title": "Snowplow Sessions Is First",
          "type": "string",
          "shortTitle": "Is First",
          "suggestFilterValues": true,
          "isVisible": true
        },
        {
          "name": "SnowplowSessions.userId",
          "title": "Snowplow Sessions User Id",
          "type": "string",
          "shortTitle": "User Id",
          "suggestFilterValues": true,
          "isVisible": true
        },
        {
          "name": "SnowplowSessions.numberEvents",
          "title": "Snowplow Sessions Number Events",
          "type": "number",
          "shortTitle": "Number Events",
          "suggestFilterValues": true,
          "isVisible": true
        },
        {
          "name": "SnowplowSessions.startAt",
          "title": "Snowplow Sessions Start at",
          "type": "time",
          "shortTitle": "Start at",
          "suggestFilterValues": true,
          "isVisible": true
        },
        {
          "name": "SnowplowSessions.nextStartAt",
          "title": "Snowplow Sessions Next Start at",
          "type": "time",
          "shortTitle": "Next Start at",
          "suggestFilterValues": true,
          "isVisible": true
        },
        {
          "name": "SnowplowSessions.endAt",
          "title": "Snowplow Sessions End at",
          "type": "time",
          "shortTitle": "End at",
          "suggestFilterValues": true,
          "isVisible": true
        },
        {
          "name": "SnowplowSessions.durationMinutes",
          "title": "Snowplow Sessions Duration Minutes",
          "type": "number",
          "shortTitle": "Duration Minutes",
          "suggestFilterValues": true,
          "isVisible": true
        },
        {
          "name": "SnowplowSessions.agentName",
          "title": "Snowplow Sessions Agent Name",
          "type": "string",
          "shortTitle": "Agent Name",
          "suggestFilterValues": true,
          "isVisible": true
        },
        {
          "name": "SnowplowSessions.pageUrlhost",
          "title": "Snowplow Sessions Page Urlhost",
          "type": "string",
          "shortTitle": "Page Urlhost",
          "suggestFilterValues": true,
          "isVisible": true
        },
        {
          "name": "SnowplowSessions.pageUrlpath",
          "title": "Snowplow Sessions Page Urlpath",
          "type": "string",
          "shortTitle": "Page Urlpath",
          "suggestFilterValues": true,
          "isVisible": true
        },
        {
          "name": "SnowplowSessions.event",
          "title": "Snowplow Sessions Event",
          "type": "string",
          "shortTitle": "Event",
          "suggestFilterValues": true,
          "isVisible": true
        },
        {
          "name": "SnowplowSessions.eventId",
          "title": "Snowplow Sessions Event Id",
          "type": "string",
          "shortTitle": "Event Id",
          "suggestFilterValues": true,
          "isVisible": true
        },
        {
          "name": "SnowplowSessions.pageTitle",
          "title": "Snowplow Sessions Page Title",
          "type": "string",
          "shortTitle": "Page Title",
          "suggestFilterValues": true,
          "isVisible": true
        },
        {
          "name": "SnowplowSessions.osFamily",
          "title": "Snowplow Sessions Os Family",
          "type": "string",
          "shortTitle": "Os Family",
          "suggestFilterValues": true,
          "isVisible": true
        },
        {
          "name": "SnowplowSessions.osName",
          "title": "Snowplow Sessions Os Name",
          "type": "string",
          "shortTitle": "Os Name",
          "suggestFilterValues": true,
          "isVisible": true
        },
        {
          "name": "SnowplowSessions.osVersion",
          "title": "Snowplow Sessions Os Version",
          "type": "string",
          "shortTitle": "Os Version",
          "suggestFilterValues": true,
          "isVisible": true
        },
        {
          "name": "SnowplowSessions.osVersionMajor",
          "title": "Snowplow Sessions Os Version Major",
          "type": "string",
          "shortTitle": "Os Version Major",
          "suggestFilterValues": true,
          "isVisible": true
        },
        {
          "name": "SnowplowSessions.agentVersion",
          "title": "Snowplow Sessions Agent Version",
          "type": "string",
          "shortTitle": "Agent Version",
          "suggestFilterValues": true,
          "isVisible": true
        },
        {
          "name": "SnowplowSessions.pageReferrer",
          "title": "Snowplow Sessions Page Referrer",
          "type": "string",
          "shortTitle": "Page Referrer",
          "suggestFilterValues": true,
          "isVisible": true
        },
        {
          "name": "SnowplowSessions.screenResolution",
          "title": "Snowplow Sessions Screen Resolution",
          "type": "string",
          "shortTitle": "Screen Resolution",
          "suggestFilterValues": true,
          "isVisible": true
        },
        {
          "name": "SnowplowSessions.browserLanguage",
          "title": "Snowplow Sessions Browser Language",
          "type": "string",
          "shortTitle": "Browser Language",
          "suggestFilterValues": true,
          "isVisible": true
        },
        {
          "name": "SnowplowSessions.documentLanguage",
          "title": "Snowplow Sessions Document Language",
          "type": "string",
          "shortTitle": "Document Language",
          "suggestFilterValues": true,
          "isVisible": true
        },
        {
          "name": "SnowplowSessions.viewportSize",
          "title": "Snowplow Sessions Viewport Size",
          "type": "string",
          "shortTitle": "Viewport Size",
          "suggestFilterValues": true,
          "isVisible": true
        }
      ],
      "segments": [

      ]
    },
    {
      "name": "SnowplowTrackedEvents",
      "title": "Snowplow Tracked Events",
      "connectedComponent": 2,
      "measures": [
        {
          "name": "SnowplowTrackedEvents.pageViewsCount",
          "title": "Snowplow Tracked Events Page Views Count",
          "shortTitle": "Page Views Count",
          "cumulativeTotal": false,
          "cumulative": false,
          "type": "number",
          "aggType": "count",
          "drillMembers": [

          ],
          "drillMembersGrouped": {
            "measures": [

            ],
            "dimensions": [

            ]
          },
          "isVisible": true
        },
        {
          "name": "SnowplowTrackedEvents.uniqueUsersCount",
          "title": "Snowplow Tracked Events Unique Users Count",
          "shortTitle": "Unique Users Count",
          "cumulativeTotal": false,
          "cumulative": false,
          "type": "number",
          "aggType": "countDistinct",
          "drillMembers": [

          ],
          "drillMembersGrouped": {
            "measures": [

            ],
            "dimensions": [

            ]
          },
          "isVisible": true
        },
        {
          "name": "SnowplowTrackedEvents.count",
          "title": "Snowplow Tracked Events Count",
          "shortTitle": "Count",
          "cumulativeTotal": false,
          "cumulative": false,
          "type": "number",
          "aggType": "count",
          "drillMembers": [
            "SnowplowTrackedEvents.eventId",
            "SnowplowTrackedEvents.pageTitle"
          ],
          "drillMembersGrouped": {
            "measures": [

            ],
            "dimensions": [
              "SnowplowTrackedEvents.eventId",
              "SnowplowTrackedEvents.pageTitle"
            ]
          },
          "isVisible": true
        }
      ],
      "dimensions": [
        {
          "name": "SnowplowTrackedEvents.pageUrlhosts",
          "title": "Snowplow Tracked Events Page Urlhosts",
          "type": "string",
          "shortTitle": "Page Urlhosts",
          "suggestFilterValues": true,
          "isVisible": true
        },
        {
          "name": "SnowplowTrackedEvents.pageUrlpath",
          "title": "Snowplow Tracked Events Page Urlpath",
          "type": "string",
          "shortTitle": "Page Urlpath",
          "suggestFilterValues": true,
          "isVisible": true
        },
        {
          "name": "SnowplowTrackedEvents.event",
          "title": "Snowplow Tracked Events Event",
          "type": "string",
          "shortTitle": "Event",
          "suggestFilterValues": true,
          "isVisible": true
        },
        {
          "name": "SnowplowTrackedEvents.pageTitle",
          "title": "Snowplow Tracked Events Page Title",
          "type": "string",
          "shortTitle": "Page Title",
          "suggestFilterValues": true,
          "isVisible": true
        },
        {
          "name": "SnowplowTrackedEvents.osFamily",
          "title": "Snowplow Tracked Events Os Family",
          "type": "string",
          "shortTitle": "Os Family",
          "suggestFilterValues": true,
          "isVisible": true
        },
        {
          "name": "SnowplowTrackedEvents.osName",
          "title": "Snowplow Tracked Events Os Name",
          "type": "string",
          "shortTitle": "Os Name",
          "suggestFilterValues": true,
          "isVisible": true
        },
        {
          "name": "SnowplowTrackedEvents.osVersion",
          "title": "Snowplow Tracked Events Os Version",
          "type": "string",
          "shortTitle": "Os Version",
          "suggestFilterValues": true,
          "isVisible": true
        },
        {
          "name": "SnowplowTrackedEvents.osVersionMajor",
          "title": "Snowplow Tracked Events Os Version Major",
          "type": "string",
          "shortTitle": "Os Version Major",
          "suggestFilterValues": true,
          "isVisible": true
        },
        {
          "name": "SnowplowTrackedEvents.agentName",
          "title": "Snowplow Tracked Events Agent Name",
          "type": "string",
          "shortTitle": "Agent Name",
          "suggestFilterValues": true,
          "isVisible": true
        },
        {
          "name": "SnowplowTrackedEvents.agentVersion",
          "title": "Snowplow Tracked Events Agent Version",
          "type": "string",
          "shortTitle": "Agent Version",
          "suggestFilterValues": true,
          "isVisible": true
        },
        {
          "name": "SnowplowTrackedEvents.pageReferrer",
          "title": "Snowplow Tracked Events Page Referrer",
          "type": "string",
          "shortTitle": "Page Referrer",
          "suggestFilterValues": true,
          "isVisible": true
        },
        {
          "name": "SnowplowTrackedEvents.pageUrl",
          "title": "Snowplow Tracked Events Page Url",
          "type": "string",
          "shortTitle": "Page Url",
          "suggestFilterValues": true,
          "isVisible": true
        },
        {
          "name": "SnowplowTrackedEvents.useragent",
          "title": "Snowplow Tracked Events Useragent",
          "type": "string",
          "shortTitle": "Useragent",
          "suggestFilterValues": true,
          "isVisible": true
        },
        {
          "name": "SnowplowTrackedEvents.userId",
          "title": "Snowplow Tracked Events User Id",
          "type": "string",
          "shortTitle": "User Id",
          "suggestFilterValues": true,
          "isVisible": true
        },
        {
          "name": "SnowplowTrackedEvents.derivedTstamp",
          "title": "Snowplow Tracked Events Derived Tstamp",
          "type": "time",
          "shortTitle": "Derived Tstamp",
          "suggestFilterValues": true,
          "isVisible": true
        },
        {
          "name": "SnowplowTrackedEvents.browserLanguage",
          "title": "Snowplow Tracked Events Browser Language",
          "type": "string",
          "shortTitle": "Browser Language",
          "suggestFilterValues": true,
          "isVisible": true
        },
        {
          "name": "SnowplowTrackedEvents.documentLanguage",
          "title": "Snowplow Tracked Events Document Language",
          "type": "string",
          "shortTitle": "Document Language",
          "suggestFilterValues": true,
          "isVisible": true
        },
        {
          "name": "SnowplowTrackedEvents.viewportSize",
          "title": "Snowplow Tracked Events Viewport Size",
          "type": "string",
          "shortTitle": "Viewport Size",
          "suggestFilterValues": true,
          "isVisible": true
        }
      ],
      "segments": [

      ]
    }
  ]
}
